<?xml version="1.0" encoding="UTF-8"?>
<session version="1.0">
<refactoring comment="Move 1 resources to &apos;3A&apos;" description="Move 1 resources to &apos;3A&apos;" destination="/3A" element1="/192.168.126.131/3A.c" flags="7" id="org.eclipse.ltk.core.refactoring.move.resources" resources="1" stamp="1489281403547" updateReferences="true"/>
</session>