/home/user/qnx660/host/linux/x86/usr/bin/make -k "CPULIST=arm x86" all --file=/tmp/QMakefile14907792051536444949718565034706.tmp 
/home/user/qnx660/host/linux/x86/usr/bin/make -j 1 -Carm -fMakefile all 
make[1]: Entering directory `/home/user/rts/lab3/lab3_5B_Sems/arm'
/home/user/qnx660/host/linux/x86/usr/bin/make -j 1 -Co-le-v7 -fMakefile all 
make[2]: Entering directory `/home/user/rts/lab3/lab3_5B_Sems/arm/o-le-v7'
/home/user/qnx660/host/linux/x86/usr/bin/qcc -Vgcc_ntoarmv7 -c -Os -Wc,-Wall          -DNDEBUG   -I. -I/home/user/rts/lab3/lab3_5B_Sems/arm/o-le-v7 -I/home/user/rts/lab3/lab3_5B_Sems/arm -I/home/user/rts/lab3/lab3_5B_Sems -I/home/user/qnx660/target/qnx6/usr/include    -EL         -DVARIANT_le -DVARIANT_v7 -DBUILDENV_qss  /home/user/rts/lab3/lab3_5B_Sems/lab3_5B_Sems.c 
/home/user/rts/lab3/lab3_5B_Sems/lab3_5B_Sems.c:21:3: error: unknown type name 'sem_t'
make[2]: Leaving directory `/home/user/rts/lab3/lab3_5B_Sems/arm/o-le-v7'
/home/user/qnx660/host/linux/x86/usr/bin/make -j 1 -Co-le-v7-g -fMakefile all
make[2]: Entering directory `/home/user/rts/lab3/lab3_5B_Sems/arm/o-le-v7-g'
/home/user/qnx660/host/linux/x86/usr/bin/qcc -Vgcc_ntoarmv7 -c  -Wc,-Wall             -I. -I/home/user/rts/lab3/lab3_5B_Sems/arm/le.v7 -I/home/user/rts/lab3/lab3_5B_Sems/arm/o-le-v7-g -I/home/user/rts/lab3/lab3_5B_Sems/arm -I/home/user/rts/lab3/lab3_5B_Sems -I/home/user/qnx660/target/qnx6/usr/include    -EL      -g        -DVARIANT_le -DVARIANT_v7 -DVARIANT_g -DBUILDENV_qss  /home/user/rts/lab3/lab3_5B_Sems/lab3_5B_Sems.c 
make[2]: Leaving directory `/home/user/rts/lab3/lab3_5B_Sems/arm/o-le-v7-g'
make[1]: Leaving directory `/home/user/rts/lab3/lab3_5B_Sems/arm'
/home/user/qnx660/host/linux/x86/usr/bin/make -j 1 -Cx86 -fMakefile all
make[1]: Entering directory `/home/user/rts/lab3/lab3_5B_Sems/x86'
/home/user/qnx660/host/linux/x86/usr/bin/make -j 1 -Co -fMakefile all 
make[2]: Entering directory `/home/user/rts/lab3/lab3_5B_Sems/x86/o'
/home/user/qnx660/host/linux/x86/usr/bin/qcc -Vgcc_ntox86 -c -Wc,-Wall  -Os          -DNDEBUG   -I. -I/home/user/rts/lab3/lab3_5B_Sems/x86/o -I/home/user/rts/lab3/lab3_5B_Sems/x86 -I/home/user/rts/lab3/lab3_5B_Sems -I/home/user/qnx660/target/qnx6/usr/include     -DBUILDENV_qss  /home/user/rts/lab3/lab3_5B_Sems/lab3_5B_Sems.c 
make[2]: Leaving directory `/home/user/rts/lab3/lab3_5B_Sems/x86/o'
/home/user/qnx660/host/linux/x86/usr/bin/make -j 1 -Co-g -fMakefile all
make[2]: Entering directory `/home/user/rts/lab3/lab3_5B_Sems/x86/o-g'
/home/user/qnx660/host/linux/x86/usr/bin/qcc -Vgcc_ntox86 -c -Wc,-Wall               -I. -I/home/user/rts/lab3/lab3_5B_Sems/x86/o -I/home/user/rts/lab3/lab3_5B_Sems/x86/o-g -I/home/user/rts/lab3/lab3_5B_Sems/x86 -I/home/user/rts/lab3/lab3_5B_Sems -I/home/user/qnx660/target/qnx6/usr/include    -g    -DVARIANT_g -DBUILDENV_qss  /home/user/rts/lab3/lab3_5B_Sems/lab3_5B_Sems.c 
/home/user/rts/lab3/lab3_5B_Sems/lab3_5B_Sems.c: In function 'consumer':
/home/user/rts/lab3/lab3_5B_Sems/lab3_5B_Sems.c:38:6: warning: implicit declaration of function 'sem_wait' [-Wimplicit-function-declaration]
/home/user/rts/lab3/lab3_5B_Sems/lab3_5B_Sems.c:38:16: error: 'td' undeclared (first use in this function)
/home/user/rts/lab3/lab3_5B_Sems/lab3_5B_Sems.c:38:16: note: each undeclared identifier is reported only once for each function it appears in
/home/user/rts/lab3/lab3_5B_Sems/lab3_5B_Sems.c:41:9: error: expected ';' before 'while'
/home/user/rts/lab3/lab3_5B_Sems/lab3_5B_Sems.c:49:15: warning: operation on 'index' may be undefined [-Wsequence-point]
/home/user/rts/lab3/lab3_5B_Sems/lab3_5B_Sems.c:50:9: warning: implicit declaration of function 'sleep' [-Wimplicit-function-declaration]
/home/user/rts/lab3/lab3_5B_Sems/lab3_5B_Sems.c:30:7: warning: unused variable 'data' [-Wunused-variable]
/home/user/rts/lab3/lab3_5B_Sems/lab3_5B_Sems.c: In function 'producer':
/home/user/rts/lab3/lab3_5B_Sems/lab3_5B_Sems.c:80:15: warning: operation on 'index' may be undefined [-Wsequence-point]
/home/user/rts/lab3/lab3_5B_Sems/lab3_5B_Sems.c:85:15: warning: operation on 'index' may be undefined [-Wsequence-point]
/home/user/rts/lab3/lab3_5B_Sems/lab3_5B_Sems.c: In function 'main':
/home/user/rts/lab3/lab3_5B_Sems/lab3_5B_Sems.c:111:5: error: unknown type name 'sem_t'
/home/user/rts/lab3/lab3_5B_Sems/lab3_5B_Sems.c:112:5: warning: implicit declaration of function 'sem_init' [-Wimplicit-function-declaration]
/home/user/rts/lab3/lab3_5B_Sems/lab3_5B_Sems.c:112:21: error: 'td' undeclared (first use in this function)
/home/user/rts/lab3/lab3_5B_Sems/lab3_5B_Sems.c:131:2: warning: missing braces around initializer [-Wmissing-braces]
/home/user/rts/lab3/lab3_5B_Sems/lab3_5B_Sems.c:131:2: warning: (near initialization for 'data.buff') [-Wmissing-braces]
/home/user/rts/lab3/lab3_5B_Sems/lab3_5B_Sems.c:131:2: warning: braces around scalar initializer [enabled by default]
/home/user/rts/lab3/lab3_5B_Sems/lab3_5B_Sems.c:131:2: warning: (near initialization for 'data.buff[2]') [enabled by default]
/home/user/rts/lab3/lab3_5B_Sems/lab3_5B_Sems.c:131:2: warning: braces around scalar initializer [enabled by default]
/home/user/rts/lab3/lab3_5B_Sems/lab3_5B_Sems.c:131:2: warning: (near initialization for 'data.buff[2]') [enabled by default]
/home/user/rts/lab3/lab3_5B_Sems/lab3_5B_Sems.c:131:2: warning: overflow in implicit constant conversion [-Woverflow]
/home/user/rts/lab3/lab3_5B_Sems/lab3_5B_Sems.c:131:2: warning: excess elements in scalar initializer [enabled by default]
/home/user/rts/lab3/lab3_5B_Sems/lab3_5B_Sems.c:131:2: warning: (near initialization for 'data.buff[2]') [enabled by default]
/home/user/rts/lab3/lab3_5B_Sems/lab3_5B_Sems.c:131:2: warning: braces around scalar initializer [enabled by default]
/home/user/rts/lab3/lab3_5B_Sems/lab3_5B_Sems.c:131:2: warning: (near initialization for 'data.buff[3]') [enabled by default]
/home/user/rts/lab3/lab3_5B_Sems/lab3_5B_Sems.c:131:2: warning: braces around scalar initializer [enabled by default]
/home/user/rts/lab3/lab3_5B_Sems/lab3_5B_Sems.c:131:2: warning: (near initialization for 'data.buff[3]') [enabled by default]
/home/user/rts/lab3/lab3_5B_Sems/lab3_5B_Sems.c:131:2: warning: overflow in implicit constant conversion [-Woverflow]
/home/user/rts/lab3/lab3_5B_Sems/lab3_5B_Sems.c:131:2: warning: excess elements in scalar initializer [enabled by default]
/home/user/rts/lab3/lab3_5B_Sems/lab3_5B_Sems.c:131:2: warning: (near initialization for 'data.buff[3]') [enabled by default]
/home/user/rts/lab3/lab3_5B_Sems/lab3_5B_Sems.c:133:12: error: 'app_data' has no member named 'sem_init'
/home/user/rts/lab3/lab3_5B_Sems/lab3_5B_Sems.c:135:5: error: expected ';' before 'printf'
/home/user/rts/lab3/lab3_5B_Sems/lab3_5B_Sems.c:111:11: warning: unused variable 'sem' [-Wunused-variable]
/home/user/rts/lab3/lab3_5B_Sems/lab3_5B_Sems.c:106:6: warning: variable 'ret' set but not used [-Wunused-but-set-variable]
cc: /home/user/qnx660/host/linux/x86/usr/lib/gcc/arm-unknown-nto-qnx6.6.0eabi/4.7.3/cc1 error 1
make[2]: *** [lab3_5B_Sems.o] Error 1
make[2]: Target `all' not remade because of errors.
make[1]: [all] Error 2 (ignored)
/home/user/rts/lab3/lab3_5B_Sems/lab3_5B_Sems.c:21:3: error: unknown type name 'sem_t'
/home/user/rts/lab3/lab3_5B_Sems/lab3_5B_Sems.c: In function 'consumer':
/home/user/rts/lab3/lab3_5B_Sems/lab3_5B_Sems.c:38:6: warning: implicit declaration of function 'sem_wait' [-Wimplicit-function-declaration]
/home/user/rts/lab3/lab3_5B_Sems/lab3_5B_Sems.c:38:16: error: 'td' undeclared (first use in this function)
/home/user/rts/lab3/lab3_5B_Sems/lab3_5B_Sems.c:38:16: note: each undeclared identifier is reported only once for each function it appears in
make[2]: Leaving directory `/home/user/rts/lab3/lab3_5B_Sems/x86/o-g'
make[1]: Leaving directory `/home/user/rts/lab3/lab3_5B_Sems/x86'
/home/user/rts/lab3/lab3_5B_Sems/lab3_5B_Sems.c:41:9: error: expected ';' before 'while'
/home/user/rts/lab3/lab3_5B_Sems/lab3_5B_Sems.c:49:15: warning: operation on 'index' may be undefined [-Wsequence-point]
/home/user/rts/lab3/lab3_5B_Sems/lab3_5B_Sems.c:50:9: warning: implicit declaration of function 'sleep' [-Wimplicit-function-declaration]
/home/user/rts/lab3/lab3_5B_Sems/lab3_5B_Sems.c:30:7: warning: unused variable 'data' [-Wunused-variable]
/home/user/rts/lab3/lab3_5B_Sems/lab3_5B_Sems.c: In function 'producer':
/home/user/rts/lab3/lab3_5B_Sems/lab3_5B_Sems.c:80:15: warning: operation on 'index' may be undefined [-Wsequence-point]
/home/user/rts/lab3/lab3_5B_Sems/lab3_5B_Sems.c:85:15: warning: operation on 'index' may be undefined [-Wsequence-point]
/home/user/rts/lab3/lab3_5B_Sems/lab3_5B_Sems.c: In function 'main':
/home/user/rts/lab3/lab3_5B_Sems/lab3_5B_Sems.c:111:5: error: unknown type name 'sem_t'
/home/user/rts/lab3/lab3_5B_Sems/lab3_5B_Sems.c:112:5: warning: implicit declaration of function 'sem_init' [-Wimplicit-function-declaration]
/home/user/rts/lab3/lab3_5B_Sems/lab3_5B_Sems.c:112:21: error: 'td' undeclared (first use in this function)
/home/user/rts/lab3/lab3_5B_Sems/lab3_5B_Sems.c:131:2: warning: missing braces around initializer [-Wmissing-braces]
/home/user/rts/lab3/lab3_5B_Sems/lab3_5B_Sems.c:131:2: warning: (near initialization for 'data.buff') [-Wmissing-braces]
/home/user/rts/lab3/lab3_5B_Sems/lab3_5B_Sems.c:131:2: warning: braces around scalar initializer [enabled by default]
/home/user/rts/lab3/lab3_5B_Sems/lab3_5B_Sems.c:131:2: warning: (near initialization for 'data.buff[2]') [enabled by default]
/home/user/rts/lab3/lab3_5B_Sems/lab3_5B_Sems.c:131:2: warning: braces around scalar initializer [enabled by default]
/home/user/rts/lab3/lab3_5B_Sems/lab3_5B_Sems.c:131:2: warning: (near initialization for 'data.buff[2]') [enabled by default]
/home/user/rts/lab3/lab3_5B_Sems/lab3_5B_Sems.c:131:2: warning: overflow in implicit constant conversion [-Woverflow]
/home/user/rts/lab3/lab3_5B_Sems/lab3_5B_Sems.c:131:2: warning: excess elements in scalar initializer [enabled by default]
/home/user/rts/lab3/lab3_5B_Sems/lab3_5B_Sems.c:131:2: warning: (near initialization for 'data.buff[2]') [enabled by default]
/home/user/rts/lab3/lab3_5B_Sems/lab3_5B_Sems.c:131:2: warning: braces around scalar initializer [enabled by default]
/home/user/rts/lab3/lab3_5B_Sems/lab3_5B_Sems.c:131:2: warning: (near initialization for 'data.buff[3]') [enabled by default]
/home/user/rts/lab3/lab3_5B_Sems/lab3_5B_Sems.c:131:2: warning: braces around scalar initializer [enabled by default]
/home/user/rts/lab3/lab3_5B_Sems/lab3_5B_Sems.c:131:2: warning: (near initialization for 'data.buff[3]') [enabled by default]
/home/user/rts/lab3/lab3_5B_Sems/lab3_5B_Sems.c:131:2: warning: overflow in implicit constant conversion [-Woverflow]
/home/user/rts/lab3/lab3_5B_Sems/lab3_5B_Sems.c:131:2: warning: excess elements in scalar initializer [enabled by default]
/home/user/rts/lab3/lab3_5B_Sems/lab3_5B_Sems.c:131:2: warning: (near initialization for 'data.buff[3]') [enabled by default]
/home/user/rts/lab3/lab3_5B_Sems/lab3_5B_Sems.c:133:12: error: 'app_data' has no member named 'sem_init'
/home/user/rts/lab3/lab3_5B_Sems/lab3_5B_Sems.c:135:5: error: expected ';' before 'printf'
/home/user/rts/lab3/lab3_5B_Sems/lab3_5B_Sems.c:111:11: warning: unused variable 'sem' [-Wunused-variable]
/home/user/rts/lab3/lab3_5B_Sems/lab3_5B_Sems.c:106:6: warning: variable 'ret' set but not used [-Wunused-but-set-variable]
cc: /home/user/qnx660/host/linux/x86/usr/lib/gcc/arm-unknown-nto-qnx6.6.0eabi/4.7.3/cc1 error 1
make[2]: *** [lab3_5B_Sems.o] Error 1
make[2]: Target `all' not remade because of errors.
make[1]: [all] Error 2 (ignored)
/home/user/rts/lab3/lab3_5B_Sems/lab3_5B_Sems.c:21:3: error: unknown type name 'sem_t'
/home/user/rts/lab3/lab3_5B_Sems/lab3_5B_Sems.c: In function 'consumer':
/home/user/rts/lab3/lab3_5B_Sems/lab3_5B_Sems.c:38:6: warning: implicit declaration of function 'sem_wait' [-Wimplicit-function-declaration]
/home/user/rts/lab3/lab3_5B_Sems/lab3_5B_Sems.c:38:16: error: 'td' undeclared (first use in this function)
/home/user/rts/lab3/lab3_5B_Sems/lab3_5B_Sems.c:38:16: note: each undeclared identifier is reported only once for each function it appears in
/home/user/rts/lab3/lab3_5B_Sems/lab3_5B_Sems.c:41:9: error: expected ';' before 'while'
/home/user/rts/lab3/lab3_5B_Sems/lab3_5B_Sems.c:49:15: warning: operation on 'index' may be undefined [-Wsequence-point]
/home/user/rts/lab3/lab3_5B_Sems/lab3_5B_Sems.c:50:9: warning: implicit declaration of function 'sleep' [-Wimplicit-function-declaration]
/home/user/rts/lab3/lab3_5B_Sems/lab3_5B_Sems.c:30:7: warning: unused variable 'data' [-Wunused-variable]
/home/user/rts/lab3/lab3_5B_Sems/lab3_5B_Sems.c: In function 'producer':
/home/user/rts/lab3/lab3_5B_Sems/lab3_5B_Sems.c:80:15: warning: operation on 'index' may be undefined [-Wsequence-point]
/home/user/rts/lab3/lab3_5B_Sems/lab3_5B_Sems.c:85:15: warning: operation on 'index' may be undefined [-Wsequence-point]
/home/user/rts/lab3/lab3_5B_Sems/lab3_5B_Sems.c: In function 'main':
/home/user/rts/lab3/lab3_5B_Sems/lab3_5B_Sems.c:111:5: error: unknown type name 'sem_t'
/home/user/rts/lab3/lab3_5B_Sems/lab3_5B_Sems.c:112:5: warning: implicit declaration of function 'sem_init' [-Wimplicit-function-declaration]
/home/user/rts/lab3/lab3_5B_Sems/lab3_5B_Sems.c:112:21: error: 'td' undeclared (first use in this function)
/home/user/rts/lab3/lab3_5B_Sems/lab3_5B_Sems.c:131:2: warning: missing braces around initializer [-Wmissing-braces]
/home/user/rts/lab3/lab3_5B_Sems/lab3_5B_Sems.c:131:2: warning: (near initialization for 'data.buff') [-Wmissing-braces]
/home/user/rts/lab3/lab3_5B_Sems/lab3_5B_Sems.c:131:2: warning: braces around scalar initializer [enabled by default]
/home/user/rts/lab3/lab3_5B_Sems/lab3_5B_Sems.c:131:2: warning: (near initialization for 'data.buff[2]') [enabled by default]
/home/user/rts/lab3/lab3_5B_Sems/lab3_5B_Sems.c:131:2: warning: braces around scalar initializer [enabled by default]
/home/user/rts/lab3/lab3_5B_Sems/lab3_5B_Sems.c:131:2: warning: (near initialization for 'data.buff[2]') [enabled by default]
/home/user/rts/lab3/lab3_5B_Sems/lab3_5B_Sems.c:131:2: warning: overflow in implicit constant conversion [-Woverflow]
/home/user/rts/lab3/lab3_5B_Sems/lab3_5B_Sems.c:131:2: warning: excess elements in scalar initializer [enabled by default]
/home/user/rts/lab3/lab3_5B_Sems/lab3_5B_Sems.c:131:2: warning: (near initialization for 'data.buff[2]') [enabled by default]
/home/user/rts/lab3/lab3_5B_Sems/lab3_5B_Sems.c:131:2: warning: braces around scalar initializer [enabled by default]
/home/user/rts/lab3/lab3_5B_Sems/lab3_5B_Sems.c:131:2: warning: (near initialization for 'data.buff[3]') [enabled by default]
/home/user/rts/lab3/lab3_5B_Sems/lab3_5B_Sems.c:131:2: warning: braces around scalar initializer [enabled by default]
/home/user/rts/lab3/lab3_5B_Sems/lab3_5B_Sems.c:131:2: warning: (near initialization for 'data.buff[3]') [enabled by default]
/home/user/rts/lab3/lab3_5B_Sems/lab3_5B_Sems.c:131:2: warning: overflow in implicit constant conversion [-Woverflow]
/home/user/rts/lab3/lab3_5B_Sems/lab3_5B_Sems.c:131:2: warning: excess elements in scalar initializer [enabled by default]
/home/user/rts/lab3/lab3_5B_Sems/lab3_5B_Sems.c:131:2: warning: (near initialization for 'data.buff[3]') [enabled by default]
/home/user/rts/lab3/lab3_5B_Sems/lab3_5B_Sems.c:133:12: error: 'app_data' has no member named 'sem_init'
/home/user/rts/lab3/lab3_5B_Sems/lab3_5B_Sems.c:135:5: error: expected ';' before 'printf'
/home/user/rts/lab3/lab3_5B_Sems/lab3_5B_Sems.c:111:11: warning: unused variable 'sem' [-Wunused-variable]
/home/user/rts/lab3/lab3_5B_Sems/lab3_5B_Sems.c:106:6: warning: variable 'ret' set but not used [-Wunused-but-set-variable]
cc: /home/user/qnx660/host/linux/x86/usr/lib/gcc/i486-pc-nto-qnx6.6.0/4.7.3/cc1 error 1
make[2]: *** [lab3_5B_Sems.o] Error 1
make[2]: Target `all' not remade because of errors.
make[1]: [all] Error 2 (ignored)
/home/user/rts/lab3/lab3_5B_Sems/lab3_5B_Sems.c:21:3: error: unknown type name 'sem_t'
/home/user/rts/lab3/lab3_5B_Sems/lab3_5B_Sems.c: In function 'consumer':
/home/user/rts/lab3/lab3_5B_Sems/lab3_5B_Sems.c:38:6: warning: implicit declaration of function 'sem_wait' [-Wimplicit-function-declaration]
/home/user/rts/lab3/lab3_5B_Sems/lab3_5B_Sems.c:38:16: error: 'td' undeclared (first use in this function)
/home/user/rts/lab3/lab3_5B_Sems/lab3_5B_Sems.c:38:16: note: each undeclared identifier is reported only once for each function it appears in
/home/user/rts/lab3/lab3_5B_Sems/lab3_5B_Sems.c:41:9: error: expected ';' before 'while'
/home/user/rts/lab3/lab3_5B_Sems/lab3_5B_Sems.c:49:15: warning: operation on 'index' may be undefined [-Wsequence-point]
/home/user/rts/lab3/lab3_5B_Sems/lab3_5B_Sems.c:50:9: warning: implicit declaration of function 'sleep' [-Wimplicit-function-declaration]
/home/user/rts/lab3/lab3_5B_Sems/lab3_5B_Sems.c:30:7: warning: unused variable 'data' [-Wunused-variable]
/home/user/rts/lab3/lab3_5B_Sems/lab3_5B_Sems.c: In function 'producer':
/home/user/rts/lab3/lab3_5B_Sems/lab3_5B_Sems.c:80:15: warning: operation on 'index' may be undefined [-Wsequence-point]
/home/user/rts/lab3/lab3_5B_Sems/lab3_5B_Sems.c:85:15: warning: operation on 'index' may be undefined [-Wsequence-point]
/home/user/rts/lab3/lab3_5B_Sems/lab3_5B_Sems.c: In function 'main':
/home/user/rts/lab3/lab3_5B_Sems/lab3_5B_Sems.c:111:5: error: unknown type name 'sem_t'
/home/user/rts/lab3/lab3_5B_Sems/lab3_5B_Sems.c:112:5: warning: implicit declaration of function 'sem_init' [-Wimplicit-function-declaration]
/home/user/rts/lab3/lab3_5B_Sems/lab3_5B_Sems.c:112:21: error: 'td' undeclared (first use in this function)
/home/user/rts/lab3/lab3_5B_Sems/lab3_5B_Sems.c:131:2: warning: missing braces around initializer [-Wmissing-braces]
/home/user/rts/lab3/lab3_5B_Sems/lab3_5B_Sems.c:131:2: warning: (near initialization for 'data.buff') [-Wmissing-braces]
/home/user/rts/lab3/lab3_5B_Sems/lab3_5B_Sems.c:131:2: warning: braces around scalar initializer [enabled by default]
/home/user/rts/lab3/lab3_5B_Sems/lab3_5B_Sems.c:131:2: warning: (near initialization for 'data.buff[2]') [enabled by default]
/home/user/rts/lab3/lab3_5B_Sems/lab3_5B_Sems.c:131:2: warning: braces around scalar initializer [enabled by default]
/home/user/rts/lab3/lab3_5B_Sems/lab3_5B_Sems.c:131:2: warning: (near initialization for 'data.buff[2]') [enabled by default]
/home/user/rts/lab3/lab3_5B_Sems/lab3_5B_Sems.c:131:2: warning: overflow in implicit constant conversion [-Woverflow]
/home/user/rts/lab3/lab3_5B_Sems/lab3_5B_Sems.c:131:2: warning: excess elements in scalar initializer [enabled by default]
/home/user/rts/lab3/lab3_5B_Sems/lab3_5B_Sems.c:131:2: warning: (near initialization for 'data.buff[2]') [enabled by default]
/home/user/rts/lab3/lab3_5B_Sems/lab3_5B_Sems.c:131:2: warning: braces around scalar initializer [enabled by default]
/home/user/rts/lab3/lab3_5B_Sems/lab3_5B_Sems.c:131:2: warning: (near initialization for 'data.buff[3]') [enabled by default]
/home/user/rts/lab3/lab3_5B_Sems/lab3_5B_Sems.c:131:2: warning: braces around scalar initializer [enabled by default]
/home/user/rts/lab3/lab3_5B_Sems/lab3_5B_Sems.c:131:2: warning: (near initialization for 'data.buff[3]') [enabled by default]
/home/user/rts/lab3/lab3_5B_Sems/lab3_5B_Sems.c:131:2: warning: overflow in implicit constant conversion [-Woverflow]
/home/user/rts/lab3/lab3_5B_Sems/lab3_5B_Sems.c:131:2: warning: excess elements in scalar initializer [enabled by default]
/home/user/rts/lab3/lab3_5B_Sems/lab3_5B_Sems.c:131:2: warning: (near initialization for 'data.buff[3]') [enabled by default]
/home/user/rts/lab3/lab3_5B_Sems/lab3_5B_Sems.c:133:12: error: 'app_data' has no member named 'sem_init'
/home/user/rts/lab3/lab3_5B_Sems/lab3_5B_Sems.c:135:5: error: expected ';' before 'printf'
/home/user/rts/lab3/lab3_5B_Sems/lab3_5B_Sems.c:111:11: warning: unused variable 'sem' [-Wunused-variable]
/home/user/rts/lab3/lab3_5B_Sems/lab3_5B_Sems.c:106:6: warning: variable 'ret' set but not used [-Wunused-but-set-variable]
cc: /home/user/qnx660/host/linux/x86/usr/lib/gcc/i486-pc-nto-qnx6.6.0/4.7.3/cc1 error 1
make[2]: *** [lab3_5B_Sems.o] Error 1
make[2]: Target `all' not remade because of errors.
make[1]: [all] Error 2 (ignored)
