<?xml version="1.0" encoding="UTF-8"?>
<session version="1.0">
<refactoring comment="Rename resource &apos;2B_native_server/1A_native_server.c&apos; to &apos;2B_native_server.c&apos;" description="Rename resource &apos;1A_native_server.c&apos;" flags="7" id="org.eclipse.ltk.core.refactoring.rename.resource" input="1A_native_server.c" name="2B_native_server.c" stamp="1491451642909" updateReferences="true"/>
</session>