/home/user/qnx660/host/linux/x86/usr/bin/make -k "CPULIST=arm x86" all --file=/tmp/QMakefile14911214735311159123909861174872.tmp 
/home/user/qnx660/host/linux/x86/usr/bin/make -j 1 -Carm -fMakefile all 
make[1]: Entering directory `/home/user/rts/lab4/2D_Mqueue_carpres/arm'
/home/user/qnx660/host/linux/x86/usr/bin/make -j 1 -Co-le-v7 -fMakefile all 
make[2]: Entering directory `/home/user/rts/lab4/2D_Mqueue_carpres/arm/o-le-v7'
make[2]: Nothing to be done for `all'.
make[2]: Leaving directory `/home/user/rts/lab4/2D_Mqueue_carpres/arm/o-le-v7'
/home/user/qnx660/host/linux/x86/usr/bin/make -j 1 -Co-le-v7-g -fMakefile all
make[2]: Entering directory `/home/user/rts/lab4/2D_Mqueue_carpres/arm/o-le-v7-g'
make[2]: Nothing to be done for `all'.
make[2]: Leaving directory `/home/user/rts/lab4/2D_Mqueue_carpres/arm/o-le-v7-g'
make[1]: Leaving directory `/home/user/rts/lab4/2D_Mqueue_carpres/arm'
/home/user/qnx660/host/linux/x86/usr/bin/make -j 1 -Cx86 -fMakefile all
make[1]: Entering directory `/home/user/rts/lab4/2D_Mqueue_carpres/x86'
/home/user/qnx660/host/linux/x86/usr/bin/make -j 1 -Co -fMakefile all 
make[2]: Entering directory `/home/user/rts/lab4/2D_Mqueue_carpres/x86/o'
make[2]: Nothing to be done for `all'.
make[2]: Leaving directory `/home/user/rts/lab4/2D_Mqueue_carpres/x86/o'
/home/user/qnx660/host/linux/x86/usr/bin/make -j 1 -Co-g -fMakefile all
make[2]: Entering directory `/home/user/rts/lab4/2D_Mqueue_carpres/x86/o-g'
make[2]: Nothing to be done for `all'.
make[2]: Leaving directory `/home/user/rts/lab4/2D_Mqueue_carpres/x86/o-g'
make[1]: Leaving directory `/home/user/rts/lab4/2D_Mqueue_carpres/x86'
