<?xml version="1.0" encoding="UTF-8"?>
<session version="1.0">
<refactoring comment="Rename resource &apos;lab_3_4_Barriers/lab_3_4_Barriers.c&apos; to &apos;lab3_4_Barriers.c&apos;" description="Rename resource &apos;lab_3_4_Barriers.c&apos;" flags="7" id="org.eclipse.ltk.core.refactoring.rename.resource" input="lab_3_4_Barriers.c" name="lab3_4_Barriers.c" stamp="1490423068581" updateReferences="true"/>
</session>