<?xml version="1.0" encoding="UTF-8"?>
<session version="1.0">
<refactoring comment="Delete resource &apos;intersection1_node_rnd2&apos;" deleteContents="false" description="Delete resource &apos;intersection1_node_rnd2&apos;" element1="/intersection1_node_rnd2" flags="7" id="org.eclipse.ltk.core.refactoring.delete.resources" resources="1" stamp="1495098925308"/>
</session>