<?xml version="1.0" encoding="UTF-8"?>
<session version="1.0">
<refactoring comment="Delete resource &apos;lab3_5B_Sems&apos;" deleteContents="true" description="Delete resource &apos;lab3_5B_Sems&apos;" element1="/lab3_5B_Sems" flags="7" id="org.eclipse.ltk.core.refactoring.delete.resources" resources="1" stamp="1490780057248"/>
</session>